<?xml version="1.0" encoding="utf-8"?>
<!-- Generator: Adobe Illustrator 22.1.0, SVG Export Plug-In . SVG Version: 6.00 Build 0)  -->
<svg version="1.1" id="Calque_1" xmlns="http://www.w3.org/2000/svg" xmlns:xlink="http://www.w3.org/1999/xlink" x="0px" y="0px"
	 viewBox="0 0 257.3 249.3" style="enable-background:new 0 0 257.3 249.3;" xml:space="preserve">
<style type="text/css">
	.st0{fill:#FFFFFF;stroke:#432918;stroke-width:1.016;stroke-miterlimit:10;}
	.st1{fill:#432918;}
	.st2{fill:#95C11F;}
</style>
<rect x="0.5" y="0.5" class="st0" width="256.3" height="248.3"/>
<g>
	<rect x="29.1" y="26" class="st1" width="197.4" height="197.4"/>
	<path class="st2" d="M255.7,150H107.9c-0.8,0-1.5,0.7-1.5,1.5s0.7,1.5,1.5,1.5h98.3c-5,13.2-13.6,24.7-24.5,33.3c0,0,0.9-3.2,2.8-7
		c1.9-3.8,4.5-9.5,2.9-11.2s-5.6,1-10.1,4.5c-4.5,3.6-30.3,22.6-48.4,24.2c-21.7,1.8-26,0.5-31.9-4.4c-5.9-5-20.1-15.8-22.7-40.9
		c-2.5-23.2-4-37.9-5.5-45c2.9-5.3,6.4-10.3,10.3-15.1c10-11.9,17-19.1,21.9-25.7c1.4-1.8,2.8-3.8,4.1-5.7
		c7.9-2.6,16.1-4.4,24.2-5.5c22.5-3,44,4,44,4l0,0c0.3,0.2,0.6,0.2,1,0.2c1.2,0,2.1-1,2.1-2.1c0-0.7-0.4-1.3-0.9-1.7l0,0
		C163.2,47.4,148.7,43,133.3,43c-45.1-0.1-81.7,36.3-81.9,81.4s36.3,81.7,81.4,81.9c35.3,0.1,65.4-22.2,76.9-53.4h46
		c0.8,0,1.5-0.7,1.5-1.5S256.5,150,255.7,150z M110.8,51.2c7.3-2.2,15-3.4,23-3.4c10.7,0,20.8,2.2,30,6.1
		c-22.1-3.6-42.1-1.4-56.2,2.4C109.2,53.9,110.4,52,110.8,51.2z M107.5,52.3c-0.6,0.9-1.9,2.8-3.5,5c-2.2,0.7-4.3,1.4-6.1,2.1
		c-7.3,2.9-12.7,6-16.2,8.3C89.2,61,97.9,55.8,107.5,52.3z M70.2,80.8C78.7,72.2,89.4,66,101,61.6c-1.6,2.2-3.3,4.3-4.8,6.1
		c-5,5.9-22.3,24.8-26.9,33.1c-0.4,0.8-0.9,1.6-1.3,2.4c-1.4-4.9-3.4-10.2-4.1-11.8C65.7,87.7,67.8,84.2,70.2,80.8z M56.1,125.2
		c0-10.9,2.3-21.2,6.4-30.6c0.6,1.3,2.3,5,3.8,11.8c-3.7,6.9-7.1,14.7-7.7,25.3c-0.5,9.9,4,23.3,6.4,29.7
		C59.2,150.6,56,138.2,56.1,125.2z M71.7,172.1c-0.8-1.4-12.8-23.2-11.2-38.9c0.8-8.3,3.1-16,6.5-23c0.2,1.2,0.4,2.4,0.6,3.7
		c1.9,14,3.1,29.2,3.7,34.1s3.1,20.2,7.8,27.6c4.5,7.2,11.1,13.9,11.5,14.2C83.2,185,76.9,179,71.7,172.1z M133.4,203
		c-7.8,0-15.3-1.2-22.4-3.4c3.8,0.3,8.5,0.5,10.1,0.5c12.6,0,25.4-2.7,37.4-9.4s26.8-20.3,26.8-20.3s0.4-0.6,0,1.5
		s-3.9,10.6-3.5,14.4C168.4,196.8,151.6,203,133.4,203z"/>
</g>
</svg>
